{
	"data":[
		{
			"id":"2000038600",
			"long_name":"ВАНИНО",
			"short_name":"ВАНИНО",
			"road_id":"2000035043",
			"esr":"96760",
			"isEditable": true
		},
		{
			"id":"2000038976",
			"long_name":"НАХОДКА-ВОСТОЧНАЯ",
			"short_name":"НАХОДКА-ВОСТ",
			"road_id":"2000035043",
			"esr":"98590"
		},
		{
			"id":"2000038950",
			"long_name":"НАХОДКА",
			"short_name":"НАХОДКА",
			"road_id":"2000035043",
			"esr":"98450"
		},
		{
			"id":"111",
			"long_name":"РЫБНИКИ",
			"short_name":"РЫБНИКИ",
			"road_id":"111",
			"esr":"111"
		},
		{
			"id":"222",
			"long_name":"КРАБОВАЯ",
			"short_name":"КРАБОВАЯ",
			"road_id":"222",
			"esr":"222"
		},
		{
			"id":"333",
			"long_name":"М. АСТАФЬЕВА",
			"short_name":"М. АСТАФЬЕВА",
			"road_id":"333",
			"esr":"333"
		},
		{
			"id":"444",
			"long_name":"ГАЙДАМАК",
			"short_name":"ГАЙДАМАК",
			"road_id":"444",
			"esr":"444"
		},
		{
			"id":"2000038840",
			"long_name":"ВЛАДИВОСТОК",
			"short_name":"ВЛАДИВОСТОК",
			"road_id":"2000035043",
			"esr":"98000"
		},
		{
			"id":"555",
			"long_name":"ПЕРВАЯ РЕЧКА",
			"short_name":"ПЕРВАЯ РЕЧКА",
			"road_id":"555",
			"esr":"555"
		},
		{
			"id":"666",
			"long_name":"БЛЮХЕР",
			"short_name":"БЛЮХЕР",
			"road_id":"666",
			"esr":"666"
		},
		{
			"id":"777",
			"long_name":"ПОСЬЕТ",
			"short_name":"ПОСЬЕТ",
			"road_id":"777",
			"esr":"777"
		}
	]
}